---
source: tests/tests.rs
expression: l
---
[
  {
    "level": 0,
    "xref": null,
    "tag": "HEAD",
    "value": null
  },
  {
    "level": 1,
    "xref": null,
    "tag": "GEDC",
    "value": null
  },
  {
    "level": 2,
    "xref": null,
    "tag": "VERS",
    "value": {
      "Item": [
        "5.5.5"
      ]
    }
  },
  {
    "level": 2,
    "xref": null,
    "tag": "FORM",
    "value": {
      "Item": [
        "LINEAGE-LINKED"
      ]
    }
  },
  {
    "level": 3,
    "xref": null,
    "tag": "VERS",
    "value": {
      "Item": [
        "5.5.5"
      ]
    }
  },
  {
    "level": 1,
    "xref": null,
    "tag": "CHAR",
    "value": {
      "Item": [
        "UTF-8"
      ]
    }
  },
  {
    "level": 1,
    "xref": null,
    "tag": "SOUR",
    "value": {
      "Item": [
        "gedcom.org"
      ]
    }
  },
  {
    "level": 2,
    "xref": null,
    "tag": "NAME",
    "value": {
      "Item": [
        "The GEDCOM Site"
      ]
    }
  },
  {
    "level": 2,
    "xref": null,
    "tag": "VERS",
    "value": {
      "Item": [
        "5.5.5"
      ]
    }
  },
  {
    "level": 2,
    "xref": null,
    "tag": "CORP",
    "value": {
      "Item": [
        "gedcom.org"
      ]
    }
  },
  {
    "level": 3,
    "xref": null,
    "tag": "ADDR",
    "value": null
  },
  {
    "level": 4,
    "xref": null,
    "tag": "CITY",
    "value": {
      "Item": [
        "LEIDEN"
      ]
    }
  },
  {
    "level": 3,
    "xref": null,
    "tag": "WWW",
    "value": {
      "Item": [
        "www.gedcom.org"
      ]
    }
  },
  {
    "level": 1,
    "xref": null,
    "tag": "DATE",
    "value": {
      "Item": [
        "2 Oct 2019"
      ]
    }
  },
  {
    "level": 2,
    "xref": null,
    "tag": "TIME",
    "value": {
      "Item": [
        "0:00:00"
      ]
    }
  },
  {
    "level": 1,
    "xref": null,
    "tag": "FILE",
    "value": {
      "Item": [
        "REMARR.GED"
      ]
    }
  },
  {
    "level": 1,
    "xref": null,
    "tag": "LANG",
    "value": {
      "Item": [
        "English"
      ]
    }
  },
  {
    "level": 1,
    "xref": null,
    "tag": "SUBM",
    "value": {
      "Pointer": "U1"
    }
  },
  {
    "level": 0,
    "xref": "U1",
    "tag": "SUBM",
    "value": null
  },
  {
    "level": 1,
    "xref": null,
    "tag": "NAME",
    "value": {
      "Item": [
        "gedcom.org"
      ]
    }
  },
  {
    "level": 1,
    "xref": null,
    "tag": "ADDR",
    "value": null
  },
  {
    "level": 2,
    "xref": null,
    "tag": "CITY",
    "value": {
      "Item": [
        "Leiden "
      ]
    }
  },
  {
    "level": 1,
    "xref": null,
    "tag": "WWW",
    "value": {
      "Item": [
        "www.gedcom.org"
      ]
    }
  },
  {
    "level": 0,
    "xref": "I1",
    "tag": "INDI",
    "value": null
  },
  {
    "level": 1,
    "xref": null,
    "tag": "NAME",
    "value": {
      "Item": [
        "Peter /Sweet/"
      ]
    }
  },
  {
    "level": 2,
    "xref": null,
    "tag": "SURN",
    "value": {
      "Item": [
        "Sweet"
      ]
    }
  },
  {
    "level": 2,
    "xref": null,
    "tag": "GIVN",
    "value": {
      "Item": [
        "Peter"
      ]
    }
  },
  {
    "level": 1,
    "xref": null,
    "tag": "SEX",
    "value": {
      "Item": [
        "M"
      ]
    }
  },
  {
    "level": 1,
    "xref": null,
    "tag": "BIRT",
    "value": null
  },
  {
    "level": 2,
    "xref": null,
    "tag": "DATE",
    "value": {
      "Item": [
        "7 Jul 1877"
      ]
    }
  },
  {
    "level": 1,
    "xref": null,
    "tag": "FAMS",
    "value": {
      "Pointer": "F1"
    }
  },
  {
    "level": 1,
    "xref": null,
    "tag": "FAMS",
    "value": {
      "Pointer": "F3"
    }
  },
  {
    "level": 0,
    "xref": "I2",
    "tag": "INDI",
    "value": null
  },
  {
    "level": 1,
    "xref": null,
    "tag": "NAME",
    "value": {
      "Item": [
        "Mary /Encore/"
      ]
    }
  },
  {
    "level": 2,
    "xref": null,
    "tag": "SURN",
    "value": {
      "Item": [
        "Encore"
      ]
    }
  },
  {
    "level": 2,
    "xref": null,
    "tag": "GIVN",
    "value": {
      "Item": [
        "Mary"
      ]
    }
  },
  {
    "level": 1,
    "xref": null,
    "tag": "SEX",
    "value": {
      "Item": [
        "F"
      ]
    }
  },
  {
    "level": 1,
    "xref": null,
    "tag": "BIRT",
    "value": null
  },
  {
    "level": 2,
    "xref": null,
    "tag": "DATE",
    "value": {
      "Item": [
        "4 May 1876"
      ]
    }
  },
  {
    "level": 1,
    "xref": null,
    "tag": "FAMS",
    "value": {
      "Pointer": "F1"
    }
  },
  {
    "level": 1,
    "xref": null,
    "tag": "FAMS",
    "value": {
      "Pointer": "F2"
    }
  },
  {
    "level": 1,
    "xref": null,
    "tag": "FAMS",
    "value": {
      "Pointer": "F3"
    }
  },
  {
    "level": 0,
    "xref": "I3",
    "tag": "INDI",
    "value": null
  },
  {
    "level": 1,
    "xref": null,
    "tag": "NAME",
    "value": {
      "Item": [
        "Juan /Donalds/"
      ]
    }
  },
  {
    "level": 2,
    "xref": null,
    "tag": "SURN",
    "value": {
      "Item": [
        "Donalds"
      ]
    }
  },
  {
    "level": 2,
    "xref": null,
    "tag": "GIVN",
    "value": {
      "Item": [
        "Juan"
      ]
    }
  },
  {
    "level": 1,
    "xref": null,
    "tag": "SEX",
    "value": {
      "Item": [
        "M"
      ]
    }
  },
  {
    "level": 1,
    "xref": null,
    "tag": "BIRT",
    "value": null
  },
  {
    "level": 2,
    "xref": null,
    "tag": "DATE",
    "value": {
      "Item": [
        "8 Aug 1888"
      ]
    }
  },
  {
    "level": 1,
    "xref": null,
    "tag": "FAMS",
    "value": {
      "Pointer": "F2"
    }
  },
  {
    "level": 0,
    "xref": "F1",
    "tag": "FAM",
    "value": null
  },
  {
    "level": 1,
    "xref": null,
    "tag": "HUSB",
    "value": {
      "Pointer": "I1"
    }
  },
  {
    "level": 1,
    "xref": null,
    "tag": "WIFE",
    "value": {
      "Pointer": "I2"
    }
  },
  {
    "level": 1,
    "xref": null,
    "tag": "MARR",
    "value": null
  },
  {
    "level": 2,
    "xref": null,
    "tag": "DATE",
    "value": {
      "Item": [
        "1 Jan 1900"
      ]
    }
  },
  {
    "level": 2,
    "xref": null,
    "tag": "PLAC",
    "value": {
      "Item": [
        "Amsterdam, Noord-Holland, Netherlands"
      ]
    }
  },
  {
    "level": 1,
    "xref": null,
    "tag": "DIV",
    "value": null
  },
  {
    "level": 2,
    "xref": null,
    "tag": "DATE",
    "value": {
      "Item": [
        "10 Oct 1910"
      ]
    }
  },
  {
    "level": 2,
    "xref": null,
    "tag": "PLAC",
    "value": {
      "Item": [
        "Amsterdam, Noord-Holland, Netherlands"
      ]
    }
  },
  {
    "level": 0,
    "xref": "F2",
    "tag": "FAM",
    "value": null
  },
  {
    "level": 1,
    "xref": null,
    "tag": "HUSB",
    "value": {
      "Pointer": "I3"
    }
  },
  {
    "level": 1,
    "xref": null,
    "tag": "WIFE",
    "value": {
      "Pointer": "I2"
    }
  },
  {
    "level": 1,
    "xref": null,
    "tag": "MARR",
    "value": null
  },
  {
    "level": 2,
    "xref": null,
    "tag": "DATE",
    "value": {
      "Item": [
        "11 Nov 1911"
      ]
    }
  },
  {
    "level": 2,
    "xref": null,
    "tag": "PLAC",
    "value": {
      "Item": [
        "Amsterdam, Noord-Holland, Netherlands"
      ]
    }
  },
  {
    "level": 1,
    "xref": null,
    "tag": "DIV",
    "value": null
  },
  {
    "level": 2,
    "xref": null,
    "tag": "DATE",
    "value": {
      "Item": [
        "12 Dec 1912"
      ]
    }
  },
  {
    "level": 2,
    "xref": null,
    "tag": "PLAC",
    "value": {
      "Item": [
        "Amsterdam, Noord-Holland, Netherlands"
      ]
    }
  },
  {
    "level": 0,
    "xref": "F3",
    "tag": "FAM",
    "value": null
  },
  {
    "level": 1,
    "xref": null,
    "tag": "HUSB",
    "value": {
      "Pointer": "I1"
    }
  },
  {
    "level": 1,
    "xref": null,
    "tag": "WIFE",
    "value": {
      "Pointer": "I2"
    }
  },
  {
    "level": 1,
    "xref": null,
    "tag": "MARR",
    "value": null
  },
  {
    "level": 2,
    "xref": null,
    "tag": "DATE",
    "value": {
      "Item": [
        "1 Jan 1912"
      ]
    }
  },
  {
    "level": 2,
    "xref": null,
    "tag": "PLAC",
    "value": {
      "Item": [
        "Amsterdam, Noord-Holland, Netherlands"
      ]
    }
  },
  {
    "level": 0,
    "xref": null,
    "tag": "TRLR",
    "value": null
  }
]
