---
source: tests/tests.rs
expression: l
---
[
  {
    "level": 0,
    "xref": null,
    "tag": "HEAD",
    "value": null
  },
  {
    "level": 1,
    "xref": null,
    "tag": "GEDC",
    "value": null
  },
  {
    "level": 2,
    "xref": null,
    "tag": "VERS",
    "value": {
      "Item": [
        "5.5.5"
      ]
    }
  },
  {
    "level": 2,
    "xref": null,
    "tag": "FORM",
    "value": {
      "Item": [
        "LINEAGE-LINKED"
      ]
    }
  },
  {
    "level": 3,
    "xref": null,
    "tag": "VERS",
    "value": {
      "Item": [
        "5.5.5"
      ]
    }
  },
  {
    "level": 1,
    "xref": null,
    "tag": "CHAR",
    "value": {
      "Item": [
        "UTF-8"
      ]
    }
  },
  {
    "level": 1,
    "xref": null,
    "tag": "SOUR",
    "value": {
      "Item": [
        "gedcom.org"
      ]
    }
  },
  {
    "level": 0,
    "xref": "U",
    "tag": "SUBM",
    "value": null
  },
  {
    "level": 1,
    "xref": null,
    "tag": "NAME",
    "value": {
      "Item": [
        "gedcom.org"
      ]
    }
  },
  {
    "level": 0,
    "xref": null,
    "tag": "TRLR",
    "value": null
  }
]
